…
>1. 使用SPSS进行探索性因子分析
>2. 具有强力的理论支撑

为方便数据展示，现在导入R语言中查看数据情况。我们直接以stata的格式导入。


```r
library(haven)
netizen <- read_stata("eman.dta")
print(netizen)
```

```
## # A tibble: 2,149 × 15
##    Q15_R13       Q15_R14 Q15_R16 Q15_R22 Q20_R9  Q20_R10 Q20_R11 Q23_R13 Q23_R14
##    <dbl+lbl>     <dbl+l> <dbl+l> <dbl+l> <dbl+l> <dbl+l> <dbl+l> <dbl+l> <dbl+l>
##  1 1 [几乎不使… 3 [经… 3 [经… 4 [几… 5 [非… 4 [比… 4 [比… 1 [强… 2 [反…
##  2 1 [几乎不使… 1 [几… 2 [不… 1 [几… 4 [比… 3 [中… 4 [比… 3 [中… 3 [中…
##  3 4 [几乎每天… 4 [几… 4 [几… 4 [几… 3 [中… 3 [中… 3 [中… 3 [中… 3 [中…
##  4 3 [经常使用]… 3 [经… 3 [经… 3 [经… 4 [比… 4 [比… 4 [比… 4 [同… 4 [同…
##  5 2 [不常使用]… 3 [经… 3 [经… 2 [不… 4 [比… 4 [比… 2 [不… 4 [同… 4 [同…
##  6 1 [几乎不使… 1 [几… 1 [几… 1 [几… 1 [很… 3 [中… 5 [非… 3 [中… 3 [中…
##  7 4 [几乎每天… 3 [经… 3 [经… 3 [经… 3 [中… 4 [比… 3 [中… 4 [同… 3 [中…
##  8 2 [不常使用]… 2 [不… 2 [不… 2 [不… 4 [比… 4 [比… 4 [比… 2 [反… 3 [中…
##  9 2 [不常使用]… 2 [不… 3 [经… 3 [经… 4 [比… 4 [比… 2 [不… 1 [强… 2 [反…
## 10 3 [经常使用]… 3 [经… 4 [几… 3 [经… 4 [比… 5 [非… 3 [中… 3 [中… 4 [同…
## # ℹ 2,139 more rows
## # ℹ 6 more variables: Q23_R15 <dbl+lbl>, Q24_R4 <dbl+lbl>, Q24_R5 <dbl+lbl>,
## #   Q24_R6 <dbl+lbl>, Q24_R7 <dbl+lbl>, Q24_R15 <dbl+lbl>
```
…
